{
  "variables": {
  },
  "builders": [
    {
      "type": "arm-image",
      "iso_url": "https://images.offensive-security.com/arm-images/kali-linux-2020.1a-rpi3-nexmon.img.xz",
      "iso_checksum_type": "sha256",
      "iso_checksum": "7ac77e7aadb70194791fc2463bc8fa413e88e7060740de53f1b29d79436303e7"
    }
  ],
  "provisioners": [
    {
      "type": "shell",
      "inline": [
        "apt-get update && apt-get upgrade"
      ]
    }
  ]
}
