{
  "variables": {},
  "builders": [
    {
      "type": "null",
      "communicator": "none"
    }
  ],
  "post-processors": [
    {
      "type": "artifice",
      "files": ["/build/zip/raspberry-pi-mac.tar.gz"],
      "keep_input_artifact": true
    },
    {
      "type": "docker-import",
      "repository": "repo",
      "tag": "latest"
    },
    {
      "type": "docker-tag",
      "repository": "repo",
      "tag": "latest"
    },
    {
      "type": "docker-push",
      "login": true,
      "login_username": "user",
      "login_password": "pass"
    }
  ]
}