{
  "variables": {},
  "builders": [{
    "type": "arm",
    "file_urls" : ["http://downloads.raspberrypi.org/raspbian_lite/images/raspbian_lite-2020-02-14/2020-02-13-raspbian-buster-lite.zip"],
    "file_checksum": "12ae6e17bf95b6ba83beca61e7394e7411b45eba7e6a520f434b0748ea7370e8",
    "file_checksum_type": "sha256",
    "file_target_extension": "zip",
    "image_build_method": "reuse",
    "image_path": "/build/zip/raspbian.tar.gz",
    "image_size": "8G",
    "image_type": "dos",
    "image_partitions": [
      {
          "name": "boot",
          "type": "c",
          "start_sector": "8192",
          "filesystem": "vfat",
          "size": "256M",
          "mountpoint": "/boot"
      },
      {
          "name": "root",
          "type": "83",
          "start_sector": "532480",
          "filesystem": "ext4",
          "size": "0",
          "mountpoint": "/"
      }
    ],
    "qemu_binary_source_path": "/usr/bin/qemu-arm-static",
    "qemu_binary_destination_path": "/usr/bin/qemu-arm-static"
  }]
}